…
wineData_TidyDescriptions<-wineData_filtered%>%
  unnest_tokens(word, description)%>%
    anti_join(get_stopwords())
```

The top counted words remaining make sense, as the word "wine", when describing wine, is logical. And since the desciption is for describing the taste and smell of the wine, much more refined words such as "flavors" and "aromas" are used. Fruit is a common word in describing wine, as it is a desireable quality, so it finds itself as the third most commonly used word in descriptions. 


```r
wineData_TidyDescriptions %>%
  count(word, sort = TRUE) 
```

```
## # A tibble: 32,884 x 2
##    word        n
##    <chr>   <int>
##  1 wine    69028
##  2 flavors 54914
##  3 fruit   43378
##  4 aromas  32575
##  5 palate  31979
##  6 acidity 30243
##  7 finish  29529
##  8 tannins 27722
##  9 drink   27053
## 10 cherry  26055
## # ... with 32,874 more rows
```
…
